<svg width="30" height="30" viewBox="0 0 30 30" fill="none" xmlns="http://www.w3.org/2000/svg">
    <path fill-rule="evenodd" clip-rule="evenodd" d="M27 9.33331H3V6.33331H27V9.33331ZM27 24.3333H3V15.3333H27V24.3333ZM27 3.33331H3C1.335 3.33331 0 4.66831 0 6.33331V24.3333C0 25.9902 1.34315 27.3333 3 27.3333H27C28.6569 27.3333 30 25.9902 30 24.3333V6.33331C30 4.66831 28.65 3.33331 27 3.33331Z" fill="#171717"/>
    <mask id="mask0" mask-type="alpha" maskUnits="userSpaceOnUse" x="0" y="3" width="30" height="25">
        <path fill-rule="evenodd" clip-rule="evenodd" d="M27 9.33331H3V6.33331H27V9.33331ZM27 24.3333H3V15.3333H27V24.3333ZM27 3.33331H3C1.335 3.33331 0 4.66831 0 6.33331V24.3333C0 25.9902 1.34315 27.3333 3 27.3333H27C28.6569 27.3333 30 25.9902 30 24.3333V6.33331C30 4.66831 28.65 3.33331 27 3.33331Z" fill="white"/>
    </mask>
    <g mask="url(#mask0)">
    </g>
</svg>
