<svg width="31" height="27" viewBox="0 0 31 27" fill="none" xmlns="http://www.w3.org/2000/svg">
    <path d="M15.3808 26.2897C15.1846 26.2909 14.9901 26.2533 14.8085 26.1792C14.6268 26.1051 14.4616 25.9958 14.3223 25.8577L2.74683 14.2619C2.0099 13.5408 1.42332 12.6808 1.02103 11.7315C0.618747 10.7822 0.408747 9.76252 0.403189 8.73153C0.397632 7.70053 0.596629 6.67868 0.98866 5.72511C1.38069 4.77154 1.95797 3.9052 2.68708 3.17624C3.41619 2.44728 4.28264 1.87018 5.23629 1.47835C6.18994 1.08651 7.21184 0.887725 8.24283 0.893493C9.27382 0.899262 10.2934 1.10947 11.2426 1.51195C12.1918 1.91443 13.0518 2.50119 13.7727 3.23827L15.3808 4.84635L16.9956 3.23827C17.7146 2.49286 18.5749 1.89817 19.5263 1.48893C20.4776 1.07968 21.501 0.864096 22.5366 0.854749C23.5722 0.845402 24.5993 1.04248 25.5579 1.43449C26.5165 1.82649 27.3873 2.40555 28.1196 3.13787C28.852 3.87018 29.431 4.74106 29.823 5.69965C30.215 6.65824 30.4121 7.68533 30.4028 8.72093C30.3934 9.75653 30.1778 10.7799 29.7686 11.7313C29.3593 12.6826 28.7647 13.5429 28.0192 14.2619L16.4393 25.8532C16.2999 25.9913 16.1347 26.1006 15.9531 26.1747C15.7714 26.2488 15.577 26.2864 15.3808 26.2852V26.2897ZM8.26089 3.9394C7.63096 3.93706 7.0068 4.05958 6.4245 4.29988C5.84219 4.54018 5.31328 4.89349 4.86832 5.3394C3.96865 6.24381 3.46361 7.46761 3.46361 8.74328C3.46361 10.019 3.96865 11.2428 4.86832 12.1472L15.3808 22.6709L25.8978 12.1381C26.7974 11.2337 27.3025 10.0099 27.3025 8.73424C27.3025 7.45856 26.7974 6.23476 25.8978 5.33036C24.9799 4.46533 23.7664 3.98357 22.5052 3.98357C21.244 3.98357 20.0304 4.46533 19.1126 5.33036L16.4393 8.01954C16.3007 8.15897 16.136 8.26963 15.9545 8.34514C15.7731 8.42065 15.5785 8.45953 15.3819 8.45953C15.1854 8.45953 14.9907 8.42065 14.8093 8.34514C14.6278 8.26963 14.4631 8.15897 14.3246 8.01954L11.658 5.3394C11.213 4.89349 10.6841 4.54018 10.1018 4.29988C9.5195 4.05958 8.89535 3.93706 8.26542 3.9394H8.26089Z" fill="black"/>
</svg>
