<svg width="30" height="30" viewBox="0 0 30 30" fill="none" xmlns="http://www.w3.org/2000/svg">
    <path d="M27.9464 24.5223C24.7583 23.0825 24.637 16.9026 24.6347 16.7467V12.6007C24.6347 8.61041 22.1963 5.17918 18.7314 3.71819C18.7239 1.66667 17.053 0 15 0C12.9469 0 11.2761 1.66677 11.2686 3.71809C7.80375 5.17908 5.36536 8.61031 5.36536 12.6006V16.7466C5.36311 16.9025 5.24174 23.0824 2.05355 24.5222C1.69036 24.6863 1.49075 25.0816 1.57472 25.4712C1.65859 25.8609 2.00315 26.1392 2.40173 26.1392H10.4841C10.6498 27.0506 11.0808 27.8986 11.7399 28.5854C12.6154 29.4975 13.7732 29.9999 14.9998 29.9999C16.2266 29.9999 17.3844 29.4975 18.2597 28.5854C18.919 27.8985 19.35 27.0505 19.5156 26.1392H27.5979C27.9965 26.1392 28.341 25.8609 28.425 25.4712C28.5091 25.0816 28.3096 24.6863 27.9464 24.5223ZM23.7467 21.5618C24.0819 22.5778 24.5564 23.5982 25.2294 24.4473H4.77051C5.44335 23.5983 5.91791 22.578 6.25306 21.5618H23.7467ZM15 1.69191C15.9287 1.69191 16.7139 2.31594 16.9596 3.16652C16.3266 3.03525 15.6712 2.96603 15 2.96603C14.3288 2.96603 13.6734 3.0352 13.0404 3.16652C13.2862 2.31598 14.0714 1.69191 15 1.69191ZM7.05728 16.7518V12.6006C7.05728 8.22099 10.6203 4.65795 15 4.65795C19.3797 4.65795 22.9427 8.22099 22.9427 12.6006V16.7587C22.9438 16.886 22.9636 18.2234 23.3007 19.8697H6.69909C7.03635 18.2218 7.05625 16.882 7.05728 16.7518ZM15 28.3081C13.7088 28.3081 12.5818 27.3772 12.2201 26.1392H17.7797C17.418 27.3772 16.2913 28.3081 15 28.3081Z" fill="black"/>
    <path d="M15 5.84485C11.3603 5.84485 8.39917 8.80588 8.39917 12.4455C8.39917 12.9128 8.77795 13.2915 9.24515 13.2915C9.71236 13.2915 10.0911 12.9128 10.0911 12.4455C10.0911 9.73883 12.2932 7.53676 15.0001 7.53676C15.4673 7.53676 15.846 7.15799 15.846 6.69078C15.846 6.22353 15.4672 5.84485 15 5.84485Z" fill="black"/>
</svg>
