<svg width="29" height="31" viewBox="0 0 29 31" fill="none" xmlns="http://www.w3.org/2000/svg">
    <path d="M19.5239 16.6435C21.9746 15.0078 23.6085 12.227 23.6085 9.07826C23.6085 4.08931 19.5239 0 14.5408 0C9.55775 0 5.43239 4.08931 5.43239 9.07826C5.43239 12.227 7.0662 15.0078 9.5169 16.6435C3.96197 18.6881 0 24.0042 0 30.2609H2.40986C2.40986 23.5953 7.84225 18.1565 14.5 18.1565C21.1577 18.1565 26.5901 23.5953 26.5901 30.2609H29C29 24.0042 25.038 18.6881 19.5239 16.6435ZM14.5 15.7438C10.8239 15.7438 7.84225 12.7586 7.84225 9.07826C7.84225 5.39788 10.8239 2.41269 14.5 2.41269C18.1761 2.41269 21.1577 5.39788 21.1577 9.07826C21.1577 12.7586 18.1761 15.7438 14.5 15.7438Z" fill="black"/>
</svg>
