<svg width="30" height="30" viewBox="0 0 22 22" fill="none" xmlns="http://www.w3.org/2000/svg">
    <path fill-rule="evenodd" clip-rule="evenodd" d="M17.6 17.6C16.379 17.6 15.4 18.579 15.4 19.8C15.4 21.015 16.385 22 17.6 22C18.815 22 19.8 21.015 19.8 19.8C19.8 18.579 18.81 17.6 17.6 17.6ZM0 0V2.2H2.2L6.16 10.549L4.664 13.244C4.499 13.552 4.4 13.915 4.4 14.3C4.4 15.515 5.38497 16.5 6.6 16.5H19.8V14.3H7.062C6.91012 14.3 6.787 14.1769 6.787 14.025C6.787 13.97 6.798 13.926 6.82 13.893L7.81 12.1H16.005C16.83 12.1 17.556 11.638 17.93 10.967L21.868 3.85C21.945 3.674 22 3.487 22 3.3C22 2.69249 21.5075 2.2 20.9 2.2H4.631L3.597 0H0ZM6.6 17.6C5.379 17.6 4.4 18.579 4.4 19.8C4.4 21.015 5.38497 22 6.6 22C7.81503 22 8.8 21.015 8.8 19.8C8.8 18.579 7.81 17.6 6.6 17.6Z" fill="#171717"/>
    <mask id="mask0" mask-type="alpha" maskUnits="userSpaceOnUse" x="0" y="0" width="22" height="22">
        <path fill-rule="evenodd" clip-rule="evenodd" d="M17.6 17.6C16.379 17.6 15.4 18.579 15.4 19.8C15.4 21.015 16.385 22 17.6 22C18.815 22 19.8 21.015 19.8 19.8C19.8 18.579 18.81 17.6 17.6 17.6ZM0 0V2.2H2.2L6.16 10.549L4.664 13.244C4.499 13.552 4.4 13.915 4.4 14.3C4.4 15.515 5.38497 16.5 6.6 16.5H19.8V14.3H7.062C6.91012 14.3 6.787 14.1769 6.787 14.025C6.787 13.97 6.798 13.926 6.82 13.893L7.81 12.1H16.005C16.83 12.1 17.556 11.638 17.93 10.967L21.868 3.85C21.945 3.674 22 3.487 22 3.3C22 2.69249 21.5075 2.2 20.9 2.2H4.631L3.597 0H0ZM6.6 17.6C5.379 17.6 4.4 18.579 4.4 19.8C4.4 21.015 5.38497 22 6.6 22C7.81503 22 8.8 21.015 8.8 19.8C8.8 18.579 7.81 17.6 6.6 17.6Z" fill="white"/>
    </mask>
    <g mask="url(#mask0)">
    </g>
</svg>
