<svg width="18" height="18" viewBox="0 0 18 18" fill="none" xmlns="http://www.w3.org/2000/svg">
    <path fill-rule="evenodd" clip-rule="evenodd" d="M9 18C13.9706 18 18 13.9706 18 9C18 4.02944 13.9706 0 9 0C4.02944 0 0 4.02944 0 9C0 13.9706 4.02944 18 9 18Z" fill="#8F92A1" fill-opacity="0.2"/>
    <path fill-rule="evenodd" clip-rule="evenodd" d="M5.94 7L9 10.06L12.06 7L13 7.94667L9 11.9467L5 7.94667L5.94 7Z" fill="#171717"/>
    <mask id="mask0" mask-type="alpha" maskUnits="userSpaceOnUse" x="5" y="7" width="8" height="5">
        <path fill-rule="evenodd" clip-rule="evenodd" d="M5.94 7L9 10.06L12.06 7L13 7.94667L9 11.9467L5 7.94667L5.94 7Z" fill="white"/>
    </mask>
    <g mask="url(#mask0)">
    </g>
</svg>
