<svg width="34" height="34" viewBox="0 0 34 34" fill="none" xmlns="http://www.w3.org/2000/svg">
    <path fill-rule="evenodd" clip-rule="evenodd" d="M24.0711 26.4281L17 19.357L9.92893 26.4281L7.57191 24.0711L14.643 17L7.57191 9.92895L9.92893 7.57192L17 14.643L24.0711 7.57192L26.4281 9.92895L19.357 17L26.4281 24.0711L24.0711 26.4281Z" fill="#171717"/>
    <mask id="mask0" mask-type="alpha" maskUnits="userSpaceOnUse" x="0" y="0" width="34" height="34">
        <path fill-rule="evenodd" clip-rule="evenodd" d="M24.0711 26.4281L17 19.357L9.92893 26.4281L7.57191 24.0711L14.643 17L7.57191 9.92895L9.92893 7.57192L17 14.643L24.0711 7.57192L26.4281 9.92895L19.357 17L26.4281 24.0711L24.0711 26.4281Z" fill="white"/>
    </mask>
    <g mask="url(#mask0)">
    </g>
</svg>
