<svg width="30" height="21" viewBox="0 0 30 21" fill="none" xmlns="http://www.w3.org/2000/svg">
    <g clip-path="url(#clip0)">
        <path d="M29.8022 9.75704C28.8422 8.08642 23.564 -0.264836 14.5978 0.00703944C6.30654 0.215164 1.51029 7.50704 0.197788 9.75704C0.0661353 9.98507 -0.00317383 10.2437 -0.00317383 10.507C-0.00317383 10.7703 0.0661353 11.029 0.197788 11.257C1.13529 12.892 6.19778 21.007 15.0272 21.007H15.4022C23.6934 20.797 28.5065 13.507 29.7965 11.257C29.929 11.0295 29.9993 10.7711 30.0003 10.5078C30.0013 10.2445 29.933 9.98556 29.8022 9.75704V9.75704ZM15.3328 18.007C8.86966 18.157 4.65654 12.6239 3.33279 10.507C4.83279 8.09392 8.74591 3.16079 14.744 3.00704C21.1772 2.84204 25.4053 8.39017 26.744 10.507C25.199 12.9202 21.3309 17.8533 15.3328 18.007V18.007Z" fill="#9196B1"/>
        <path d="M15.002 5.25375C13.9636 5.25375 12.9486 5.56166 12.0852 6.13854C11.2219 6.71542 10.549 7.53535 10.1516 8.49467C9.75426 9.45398 9.65029 10.5096 9.85286 11.528C10.0554 12.5464 10.5554 13.4818 11.2897 14.2161C12.0239 14.9503 12.9594 15.4503 13.9778 15.6529C14.9962 15.8555 16.0518 15.7515 17.0111 15.3541C17.9704 14.9568 18.7903 14.2839 19.3672 13.4205C19.9441 12.5571 20.252 11.5421 20.252 10.5038C20.252 9.81432 20.1162 9.13163 19.8524 8.49467C19.5885 7.85771 19.2018 7.27895 18.7143 6.79144C18.2268 6.30394 17.648 5.91722 17.0111 5.65339C16.3741 5.38955 15.6914 5.25375 15.002 5.25375V5.25375ZM15.002 12.7538C14.557 12.7538 14.122 12.6218 13.752 12.3746C13.3819 12.1273 13.0936 11.7759 12.9233 11.3648C12.753 10.9537 12.7084 10.5013 12.7952 10.0648C12.882 9.62834 13.0963 9.22743 13.411 8.91277C13.7257 8.5981 14.1266 8.3838 14.563 8.29699C14.9995 8.21017 15.4519 8.25473 15.863 8.42503C16.2742 8.59532 16.6256 8.88371 16.8728 9.25372C17.12 9.62373 17.252 10.0587 17.252 10.5038C17.252 11.1005 17.0149 11.6728 16.593 12.0947C16.171 12.5167 15.5987 12.7538 15.002 12.7538V12.7538Z" fill="#9196B1"/>
    </g>
    <defs>
        <filter id="filter0_b" x="-4" y="-2.95705" width="36.6797" height="27.5821" filterUnits="userSpaceOnUse" color-interpolation-filters="sRGB">
            <feFlood flood-opacity="0" result="BackgroundImageFix"/>
            <feGaussianBlur in="BackgroundImage" stdDeviation="2"/>
            <feComposite in2="SourceAlpha" operator="in" result="effect1_backgroundBlur"/>
            <feBlend mode="normal" in="SourceGraphic" in2="effect1_backgroundBlur" result="shape"/>
        </filter>
        <clipPath id="clip0">
            <rect width="30" height="20.9981" fill="white"/>
        </clipPath>
    </defs>
</svg>
