<svg width="20" height="20" viewBox="0 0 20 20" fill="none" xmlns="http://www.w3.org/2000/svg">
<path fill-rule="evenodd" clip-rule="evenodd" d="M10 20C15.5228 20 20 15.5228 20 10C20 4.47715 15.5228 0 10 0C4.47715 0 0 4.47715 0 10C0 15.5228 4.47715 20 10 20Z" fill="#2558E4"/>
<path fill-rule="evenodd" clip-rule="evenodd" d="M9.99977 18.5714C14.7336 18.5714 18.5712 14.7339 18.5712 10C18.5712 5.26615 14.7336 1.42859 9.99977 1.42859C5.2659 1.42859 1.42834 5.26615 1.42834 10C1.42834 14.7339 5.2659 18.5714 9.99977 18.5714Z" fill="white"/>
<path fill-rule="evenodd" clip-rule="evenodd" d="M9.99985 18.8889C14.909 18.8889 18.8887 14.9092 18.8887 9.99997C18.8887 5.09077 14.909 1.11108 9.99985 1.11108C5.09065 1.11108 1.11096 5.09077 1.11096 9.99997C1.11096 14.9092 5.09065 18.8889 9.99985 18.8889Z" fill="#E9E9EC"/>
<path d="M5.75753 6.95447C5.6461 6.84304 5.55771 6.71075 5.4974 6.56515C5.43709 6.41956 5.40605 6.26351 5.40605 6.10592C5.40605 5.94832 5.43709 5.79228 5.4974 5.64668C5.5577 5.50109 5.6461 5.36879 5.75753 5.25736C5.86897 5.14593 6.00126 5.05753 6.14685 4.99722C6.29245 4.93692 6.4485 4.90588 6.60609 4.90588C6.76368 4.90588 6.91973 4.93692 7.06533 4.99722C7.21092 5.05753 7.34321 5.14592 7.45465 5.25736L10.0002 7.80289L12.5457 5.25736C12.7708 5.03231 13.076 4.90587 13.3943 4.90588C13.7125 4.90588 14.0178 5.03231 14.2428 5.25736C14.4679 5.48241 14.5943 5.78765 14.5943 6.10592C14.5943 6.42419 14.4679 6.72942 14.2428 6.95447L11.6973 9.5L14.2428 12.0455C14.4679 12.2706 14.5943 12.5758 14.5943 12.8941C14.5943 13.2124 14.4679 13.5176 14.2428 13.7426C14.0178 13.9677 13.7125 14.0941 13.3943 14.0941C13.076 14.0941 12.7708 13.9677 12.5457 13.7426L10.0002 11.1971L7.45465 13.7426C7.2296 13.9677 6.92436 14.0941 6.60609 14.0941C6.28782 14.0941 5.98258 13.9677 5.75753 13.7426C5.53248 13.5176 5.40605 13.2124 5.40605 12.8941C5.40605 12.5758 5.53248 12.2706 5.75753 12.0455L8.30306 9.5L5.75753 6.95447Z" fill="#2558E4"/>
</svg>
