<svg width="32" height="25" viewBox="0 0 32 25" fill="none" xmlns="http://www.w3.org/2000/svg">
    <path d="M1 4.08069H5.45951" stroke="#2558E4" stroke-width="2" stroke-miterlimit="10" stroke-linecap="round"/>
    <path d="M11.783 4.08069H30.9994" stroke="#2558E4" stroke-width="2" stroke-miterlimit="10" stroke-linecap="round"/>
    <path d="M1 20.6221H5.45951" stroke="#2558E4" stroke-width="2" stroke-miterlimit="10" stroke-linecap="round"/>
    <path d="M11.783 20.6221H30.9994" stroke="#2558E4" stroke-width="2" stroke-miterlimit="10" stroke-linecap="round"/>
    <path d="M1 12.3518H17.3786" stroke="#2558E4" stroke-width="2" stroke-miterlimit="10" stroke-linecap="round"/>
    <path d="M24.5134 12.3518H31" stroke="#2558E4" stroke-width="2" stroke-miterlimit="10" stroke-linecap="round"/>
    <path d="M8.62165 7.16224C10.3233 7.16224 11.7028 5.78278 11.7028 4.08112C11.7028 2.37947 10.3233 1 8.62165 1C6.91999 1 5.54053 2.37947 5.54053 4.08112C5.54053 5.78278 6.91999 7.16224 8.62165 7.16224Z" stroke="#2558E4" stroke-width="2" stroke-miterlimit="10" stroke-linecap="round"/>
    <path d="M21.1087 15.1893C22.8104 15.1893 24.1898 13.8099 24.1898 12.1082C24.1898 10.4066 22.8104 9.0271 21.1087 9.0271C19.4071 9.0271 18.0276 10.4066 18.0276 12.1082C18.0276 13.8099 19.4071 15.1893 21.1087 15.1893Z" stroke="#2558E4" stroke-width="2" stroke-miterlimit="10" stroke-linecap="round"/>
    <path d="M8.62165 23.4596C10.3233 23.4596 11.7028 22.0801 11.7028 20.3785C11.7028 18.6768 10.3233 17.2974 8.62165 17.2974C6.91999 17.2974 5.54053 18.6768 5.54053 20.3785C5.54053 22.0801 6.91999 23.4596 8.62165 23.4596Z" stroke="#2558E4" stroke-width="2" stroke-miterlimit="10" stroke-linecap="round"/>
</svg>
