<svg width="20" height="20" viewBox="0 0 20 20" fill="none" xmlns="http://www.w3.org/2000/svg">
<path d="M0.856934 0V11.4286H3.71408V20L10.3807 8.57143H6.57122L10.3807 0H0.856934ZM16.095 0H14.1903L11.1426 8.57143H12.9522L13.6189 6.66667H16.6665L17.3332 8.57143H19.1427L16.095 0ZM14.095 5.33333L15.1426 1.90476L16.1903 5.33333H14.095Z" fill="white"/>
</svg>
