<svg width="30" height="30" viewBox="0 0 30 30" fill="none" xmlns="http://www.w3.org/2000/svg">
    <path fill-rule="evenodd" clip-rule="evenodd" d="M10.0001 0V1.66667H1.66675V5H3.33341V26.6667C3.33341 28.5076 4.8258 30 6.66675 30H23.3334C25.1744 30 26.6667 28.5076 26.6667 26.6667V5H28.3334V1.66667H20.0001V0H10.0001V0ZM6.66677 5H23.3334V26.6667H6.66677V5V5ZM10.0001 8.33333V23.3333H13.3334V8.33333H10.0001V8.33333ZM16.6667 8.33333V23.3333H20.0001V8.33333H16.6667Z" fill="#F8B6C3"/>
    <mask id="mask0" mask-type="alpha" maskUnits="userSpaceOnUse" x="1" y="0" width="28" height="30">
        <path fill-rule="evenodd" clip-rule="evenodd" d="M10.0001 0V1.66667H1.66675V5H3.33341V26.6667C3.33341 28.5076 4.8258 30 6.66675 30H23.3334C25.1744 30 26.6667 28.5076 26.6667 26.6667V5H28.3334V1.66667H20.0001V0H10.0001V0ZM6.66677 5H23.3334V26.6667H6.66677V5V5ZM10.0001 8.33333V23.3333H13.3334V8.33333H10.0001V8.33333ZM16.6667 8.33333V23.3333H20.0001V8.33333H16.6667Z" fill="white"/>
    </mask>
    <g mask="url(#mask0)">
    </g>
</svg>
