<svg width="30" height="30" viewBox="0 0 30 30" fill="none" xmlns="http://www.w3.org/2000/svg">
    <path fill-rule="evenodd" clip-rule="evenodd" d="M14.7619 22.8571C13.1762 22.8571 11.9048 21.5714 11.9048 20C11.9048 18.4143 13.1762 17.1428 14.7619 17.1428C16.3399 17.1428 17.6191 18.422 17.6191 20C17.6191 21.5779 16.3399 22.8571 14.7619 22.8571V22.8571ZM23.3333 27.1429V12.8571H6.19048V27.1429H23.3333V27.1429ZM23.3333 10C24.9113 10 26.1905 11.2792 26.1905 12.8571V27.1429C26.1905 28.7208 24.9113 30 23.3333 30H6.19048C4.60476 30 3.33334 28.7143 3.33334 27.1429V12.8571C3.33334 11.2714 4.60476 10 6.19048 10H7.61905V7.14286C7.61905 3.19797 10.817 0 14.7619 0C16.6563 0 18.4731 0.752549 19.8127 2.09209C21.1522 3.43164 21.9048 5.24845 21.9048 7.14286V10H23.3333V10ZM14.7619 2.85715C12.395 2.85715 10.4762 4.77593 10.4762 7.14286V10H19.0476V7.14286C19.0476 4.77593 17.1288 2.85715 14.7619 2.85715Z" fill="#171717"/>
    <mask id="mask0" mask-type="alpha" maskUnits="userSpaceOnUse" x="3" y="0" width="24" height="30">
        <path fill-rule="evenodd" clip-rule="evenodd" d="M14.7619 22.8571C13.1762 22.8571 11.9048 21.5714 11.9048 20C11.9048 18.4143 13.1762 17.1428 14.7619 17.1428C16.3399 17.1428 17.6191 18.422 17.6191 20C17.6191 21.5779 16.3399 22.8571 14.7619 22.8571V22.8571ZM23.3333 27.1429V12.8571H6.19048V27.1429H23.3333V27.1429ZM23.3333 10C24.9113 10 26.1905 11.2792 26.1905 12.8571V27.1429C26.1905 28.7208 24.9113 30 23.3333 30H6.19048C4.60476 30 3.33334 28.7143 3.33334 27.1429V12.8571C3.33334 11.2714 4.60476 10 6.19048 10H7.61905V7.14286C7.61905 3.19797 10.817 0 14.7619 0C16.6563 0 18.4731 0.752549 19.8127 2.09209C21.1522 3.43164 21.9048 5.24845 21.9048 7.14286V10H23.3333V10ZM14.7619 2.85715C12.395 2.85715 10.4762 4.77593 10.4762 7.14286V10H19.0476V7.14286C19.0476 4.77593 17.1288 2.85715 14.7619 2.85715Z" fill="white"/>
    </mask>
    <g mask="url(#mask0)">
    </g>
</svg>
