<svg width="30" height="30" viewBox="0 0 30 30" fill="none" xmlns="http://www.w3.org/2000/svg">
    <path fill-rule="evenodd" clip-rule="evenodd" d="M28.6666 21.75C28.6666 22.32 28.3516 22.815 27.8716 23.07L16.0216 29.73C15.7816 29.91 15.4816 30 15.1666 30C14.8516 30 14.5516 29.91 14.3116 29.73L2.46163 23.07C1.98163 22.815 1.66663 22.32 1.66663 21.75V8.25C1.66663 7.68 1.98163 7.185 2.46163 6.93L14.3116 0.27C14.5516 0.09 14.8516 0 15.1666 0C15.4816 0 15.7816 0.09 16.0216 0.27L27.8716 6.93C28.3516 7.185 28.6666 7.68 28.6666 8.25V21.75M15.1666 3.225L12.3316 4.83L21.1666 9.915L24.1066 8.25L15.1666 3.225M6.22661 8.25L15.1666 13.275L18.1066 11.625L9.28661 6.525L6.22661 8.25M4.66664 20.865L13.6666 25.935V15.87L4.66664 10.815V20.865M25.6666 20.865V10.815L16.6666 15.87V25.935L25.6666 20.865Z" fill="#8F92A1"/>
</svg>
