<svg width="50" height="46" viewBox="0 0 50 46" fill="none" xmlns="http://www.w3.org/2000/svg">
    <ellipse cx="25.3846" cy="23" rx="24.429" ry="23" fill="#2558E4"/>
    <path d="M13.4224 12.6274L13.4097 20.7921L31.9952 23.1247L13.4097 25.4574L13.4224 33.6221L39.4352 23.1247L13.4224 12.6274Z" fill="white"/>
</svg>
