<svg width="253" height="80" viewBox="0 0 253 80" fill="none" xmlns="http://www.w3.org/2000/svg">
    <path d="M43.3936 55.0387C43.2901 57.1008 43.9854 59.1232 45.3358 60.6874C46.6304 62.1095 48.5721 62.8212 51.1617 62.8212C52.7518 62.8471 54.3146 62.4084 55.6574 61.5586C57.0073 60.6888 58.1476 59.5308 58.995 58.1679C59.9478 56.6523 60.6556 54.9959 61.0916 53.2607C61.5686 51.3914 61.8078 49.4696 61.8038 47.5411C61.8038 44.8341 61.1982 42.7675 59.9871 41.3414C58.8277 39.9402 57.085 39.1524 55.2656 39.2076C53.9576 39.1924 52.6607 39.4423 51.4527 39.942C50.2625 40.4382 49.1674 41.1361 48.2159 42.005C47.2333 42.9002 46.4028 43.9496 45.757 45.1107C45.0805 46.311 44.5883 47.6057 44.2964 48.9516C43.8247 50.9518 43.523 52.9881 43.3936 55.0387ZM46.5648 38.6264C47.8683 36.9722 49.5003 35.604 51.3576 34.6077C53.2935 33.5998 55.4517 33.0903 57.6352 33.1264C59.481 33.0742 61.3125 33.4599 62.9801 34.2523C64.439 34.9831 65.7046 36.0472 66.6739 37.3579C67.6815 38.7475 68.4076 40.3201 68.8119 41.9872C69.2769 43.824 69.5063 45.7119 69.4947 47.6061C69.509 50.3809 69.0774 53.1404 68.2179 55.7793C67.4419 58.2165 66.2481 60.5008 64.6902 62.5304C63.2488 64.4153 61.428 65.9781 59.3453 67.1183C57.2381 68.2487 54.8782 68.8277 52.4862 68.8014C50.2835 68.8628 48.0986 68.3974 46.1136 67.4443C44.2139 66.4124 42.6434 64.8678 41.5822 62.9869L37.8885 80.3002H30.5122L40.3055 34.1694H47.4917L46.5648 38.6264Z" fill="#052554"/>
    <path d="M95.3294 51.7965L90.3464 52.0513C88.5185 52.1381 86.6996 52.3657 84.9069 52.7332C83.6721 52.9648 82.4877 53.4124 81.4086 54.0546C80.6112 54.5428 79.9712 55.2509 79.5678 56.0936C79.1858 56.9576 78.997 57.8938 79.0153 58.838C79.0055 59.9167 79.4339 60.9545 80.2028 61.7125C80.995 62.5026 82.1829 62.8981 83.7663 62.8981C85.0636 62.9106 86.3533 62.7106 87.5849 62.3053C88.7542 61.9174 89.8555 61.3513 90.8516 60.628C91.8213 59.9207 92.6563 59.0451 93.3163 58.0435C93.9902 57.0093 94.4614 55.8566 94.706 54.6474L95.3294 51.7965ZM81.4086 68.6057C78.4316 68.6057 76.0562 67.8156 74.2823 66.2349C72.5084 64.6542 71.6257 62.3824 71.6332 59.4188C71.5507 57.3335 72.0902 55.2705 73.1836 53.4917C74.2332 51.9324 75.6639 50.6653 77.3405 49.811C79.2059 48.8575 81.2101 48.2036 83.2794 47.8727C85.591 47.4803 87.9263 47.2425 90.2697 47.1614L96.4165 46.9005L96.6124 45.8694C96.7387 45.1434 96.8043 44.4077 96.8083 43.6705C96.8895 42.3273 96.3951 41.013 95.4481 40.0549C94.5395 39.1954 93.0726 38.7629 90.9823 38.7629C88.6462 38.7629 86.8767 39.0751 85.6727 39.6991C84.4691 40.3235 83.5409 41.5407 82.8876 43.3503L76.2182 42.639C77.299 39.1971 79.1126 36.7533 81.6581 35.3072C84.204 33.861 87.5693 33.14 91.7544 33.144C95.682 33.144 98.6808 34.0369 100.752 35.8229C102.822 37.6089 103.879 40.1182 103.923 43.3503C103.92 43.977 103.876 44.6023 103.792 45.2232C103.703 45.8694 103.596 46.5393 103.466 47.2265L99.1008 67.7643H92.0927L93.0012 63.372C91.5406 64.8511 89.8841 66.1231 88.0781 67.1533C86.0154 68.1977 83.7194 68.6979 81.4086 68.6057Z" fill="#052554"/>
    <path d="M108.235 34.1692H116.388L120.665 58.3993L134.14 34.1692H142.555L120.855 69.8327C119.821 71.5554 118.861 73.0751 117.974 74.3907C117.188 75.5883 116.254 76.6835 115.195 77.6505C114.252 78.4922 113.166 79.1585 111.988 79.6186C110.657 80.1032 109.247 80.3339 107.831 80.3C106.833 80.3085 105.838 80.2114 104.861 80.0096C103.967 79.8123 103.092 79.5429 102.242 79.2035L104.184 73.6438C104.659 73.8157 105.2 73.9756 105.806 74.1302C106.441 74.2829 107.094 74.3586 107.748 74.3555C108.89 74.4081 110.011 74.0264 110.883 73.2884C111.95 72.2302 112.857 71.0219 113.574 69.7022L115.515 66.4068L108.235 34.1692Z" fill="#052554"/>
    <path d="M20.957 57.0419C20.8677 57.4686 20.7968 57.8481 20.7312 58.1679C20.6647 58.4979 20.6307 58.8333 20.6303 59.1695C20.6303 60.4206 20.9449 61.2855 21.5688 61.7541C22.3194 62.2672 23.2195 62.5175 24.1281 62.4654C25.4888 62.4703 26.8423 62.2707 28.1432 61.8726L29.2414 67.3672C27.0453 68.0723 24.7489 68.4183 22.4417 68.392C19.4682 68.392 17.182 67.7244 15.5822 66.3887C13.9828 65.0535 13.1911 63.0301 13.2067 60.3195C13.2045 59.1201 13.3562 57.9247 13.6583 56.7636L17.2213 39.966H1.10938L2.33838 34.1516H18.4329L20.375 25.1246H27.7509L25.8092 34.1694H34.8362L33.6068 39.9838H24.5797L20.957 57.0419Z" fill="#052554"/>
    <path d="M159.908 45.9761L166.56 37.5714H160.027V36.0067H168.936V37.4409L162.29 45.8692H169.274L169.03 47.4165H159.908V45.9761Z" fill="#30D266"/>
    <path d="M178.491 41.7205L176.656 41.7856C176.002 41.8025 175.35 41.8755 174.708 42.0051C174.276 42.0929 173.863 42.2532 173.484 42.479C173.202 42.6576 172.979 42.9155 172.843 43.2201C172.713 43.5417 172.648 43.8864 172.653 44.2338C172.63 44.746 172.819 45.2453 173.176 45.6145C173.657 46.002 174.27 46.1873 174.886 46.1303C175.846 46.1833 176.792 45.8791 177.541 45.2769C178.184 44.6921 178.533 43.8508 178.491 42.9828V41.7205ZM178.533 45.8693C178.092 46.389 177.561 46.8251 176.965 47.1555C176.234 47.5399 175.414 47.7261 174.589 47.6953C174.055 47.7029 173.523 47.633 173.009 47.4878C172.556 47.3617 172.133 47.1435 171.768 46.8473C171.421 46.5592 171.146 46.194 170.966 45.7806C170.762 45.3076 170.662 44.7959 170.675 44.281C170.645 43.613 170.819 42.9511 171.174 42.3842C171.509 41.8942 171.966 41.4979 172.498 41.2346C173.089 40.9447 173.72 40.7452 174.37 40.6418C175.076 40.5225 175.79 40.449 176.508 40.4223L178.479 40.3572V39.9127C178.55 39.1609 178.327 38.4114 177.855 37.8203C177.301 37.3433 176.577 37.1122 175.848 37.1803C175.147 37.1269 174.446 37.2837 173.834 37.6306C173.411 37.9277 173.112 38.3713 172.997 38.8754L171.251 38.6799C171.389 37.7348 171.934 36.8971 172.742 36.3862C173.718 35.8602 174.818 35.6121 175.925 35.6691C176.634 35.65 177.341 35.7498 178.016 35.9653C178.537 36.1337 179.009 36.4241 179.394 36.8129C179.755 37.1932 180.017 37.6578 180.154 38.1642C180.32 38.7605 180.399 39.3769 180.391 39.9956V47.4103H178.533V45.8693Z" fill="#30D266"/>
    <path d="M183.165 36.0067H185.084V43.1965C185.015 43.9835 185.198 44.7718 185.606 45.4488C186.034 45.9231 186.662 46.1672 187.299 46.1066C188.16 46.103 188.989 45.7726 189.615 45.182C189.954 44.892 190.24 44.5451 190.458 44.1567C190.664 43.7198 190.762 43.2401 190.743 42.7578V36.0067H192.668V47.4102H190.767V45.6323C190.288 46.295 189.67 46.845 188.956 47.2445C188.307 47.5813 187.585 47.7541 186.854 47.7483C185.559 47.7483 184.62 47.4009 184.038 46.7052C183.391 45.7886 183.082 44.6765 183.165 43.5581V36.0067Z" fill="#30D266"/>
    <path d="M196.32 37.5301H194.538V36.0069H196.32V35.0168C196.306 34.4748 196.399 33.935 196.592 33.4286C196.76 33.0139 197.018 32.6416 197.347 32.3378C197.664 32.047 198.041 31.8287 198.451 31.6978C198.882 31.5562 199.334 31.4862 199.787 31.4903C200.113 31.4894 200.438 31.5076 200.762 31.5437C201.09 31.5842 201.414 31.6542 201.73 31.7512L201.421 33.2508C201.202 33.1823 200.978 33.1346 200.75 33.1083C200.541 33.0852 200.331 33.0731 200.12 33.0727C199.646 33.0598 199.18 33.2036 198.796 33.482C198.388 33.8637 198.184 34.4146 198.244 34.9696V36.0069H201.136V37.5301H198.244V47.4104H196.32V37.5301Z" fill="#30D266"/>
    <path d="M210.05 41.7205L208.215 41.7856C207.56 41.8025 206.909 41.8755 206.267 42.0051C205.835 42.0915 205.421 42.2523 205.044 42.479C204.762 42.6576 204.538 42.9155 204.402 43.2201C204.276 43.535 204.214 43.8713 204.218 44.2098C204.193 44.7229 204.382 45.223 204.741 45.5909C205.222 45.9784 205.836 46.1637 206.452 46.1067C207.406 46.1646 208.349 45.8688 209.1 45.2769C209.744 44.6921 210.093 43.8508 210.05 42.9828V41.7205ZM210.092 45.8693C209.651 46.389 209.12 46.8251 208.524 47.1555C207.793 47.5399 206.974 47.7261 206.149 47.6953C205.615 47.7029 205.082 47.633 204.569 47.4878C204.115 47.3617 203.693 47.1435 203.328 46.8473C202.98 46.5592 202.706 46.194 202.526 45.7806C202.321 45.3076 202.222 44.7959 202.234 44.281C202.204 43.613 202.378 42.9511 202.733 42.3842C203.069 41.8942 203.525 41.4979 204.058 41.2346C204.647 40.9456 205.275 40.7461 205.923 40.6418C206.632 40.5229 207.348 40.4494 208.067 40.4223L210.039 40.3572V39.9127C210.109 39.1609 209.886 38.4114 209.415 37.8203C208.86 37.3433 208.136 37.1122 207.407 37.1803C206.706 37.1269 206.005 37.2837 205.394 37.6306C204.97 37.9277 204.671 38.3713 204.557 38.8754L202.81 38.6799C202.948 37.7348 203.493 36.8971 204.301 36.3862C205.277 35.8602 206.378 35.6121 207.485 35.6691C208.193 35.65 208.9 35.7498 209.575 35.9653C210.096 36.1337 210.568 36.4241 210.953 36.8129C211.315 37.1932 211.576 37.6578 211.713 38.1642C211.873 38.7632 211.949 39.3818 211.938 40.0018V47.4103H210.086L210.092 45.8693Z" fill="#30D266"/>
    <path d="M214.813 36.0066H216.69V37.7494C217.167 37.0706 217.803 36.5188 218.543 36.1429C219.211 35.82 219.945 35.6539 220.687 35.657C221.758 35.5706 222.812 35.9558 223.573 36.7121C224.257 37.5997 224.592 38.7065 224.511 39.8235V47.4102H222.629V40.1972C222.701 39.4058 222.491 38.6143 222.035 37.9627C221.57 37.4888 220.916 37.2497 220.253 37.3107C219.821 37.3102 219.39 37.3846 218.982 37.5298C218.568 37.6839 218.192 37.9244 217.878 38.2353C217.538 38.5235 217.255 38.8709 217.04 39.2606C216.831 39.6962 216.731 40.1763 216.75 40.6595V47.4102H214.831L214.813 36.0066Z" fill="#30D266"/>
    <path d="M235.427 40.7484C235.433 40.2509 235.373 39.7548 235.249 39.2729C235.144 38.8596 234.956 38.4725 234.696 38.1345C234.437 37.8138 234.103 37.5613 233.723 37.3996C233.267 37.2112 232.778 37.1203 232.286 37.1328C231.397 37.0829 230.53 37.4201 229.91 38.0574C229.287 38.8195 228.934 39.7655 228.907 40.7484H235.427ZM237.167 44.2099C237.024 45.2321 236.498 46.1616 235.695 46.8118C234.706 47.5049 233.509 47.8398 232.304 47.7601C230.8 47.8567 229.332 47.279 228.301 46.1839C227.374 45.1323 226.911 43.6666 226.911 41.7857C226.895 40.8945 227.03 40.0069 227.309 39.1602C227.541 38.4503 227.922 37.7978 228.426 37.2455C228.903 36.7311 229.486 36.3267 230.136 36.0603C231.565 35.5107 233.148 35.5107 234.578 36.0603C235.184 36.3258 235.717 36.7324 236.134 37.2455C236.557 37.7688 236.867 38.3741 237.042 39.0235C237.246 39.7468 237.346 40.495 237.34 41.2464V42.2182H228.859C228.856 42.7607 228.936 43.3005 229.096 43.8189C229.24 44.2696 229.464 44.6909 229.755 45.0633C230.047 45.4214 230.415 45.7109 230.83 45.9108C231.293 46.1251 231.799 46.2306 232.309 46.219C233.049 46.2809 233.788 46.0908 234.406 45.6797C234.861 45.3016 235.18 44.7854 235.315 44.2099H237.167Z" fill="#30D266"/>
    <path d="M162.896 62.1156C162.881 62.7534 162.967 63.3894 163.151 64.0004C163.287 64.4739 163.519 64.9135 163.834 65.2925C164.125 65.6225 164.495 65.8737 164.909 66.022C165.341 66.1792 165.797 66.2576 166.257 66.2527C166.706 66.255 167.151 66.1726 167.57 66.0095C167.981 65.8439 168.344 65.5744 168.621 65.227C168.939 64.8092 169.175 64.3345 169.316 63.8285C169.498 63.1444 169.583 62.4385 169.571 61.7303C169.587 61.0186 169.493 60.3087 169.292 59.6263C169.149 59.1351 168.909 58.6772 168.585 58.2809C168.316 57.9597 167.971 57.709 167.582 57.5518C167.204 57.4021 166.8 57.3273 166.394 57.3326C165.917 57.3264 165.442 57.4128 164.998 57.5874C164.583 57.7482 164.208 57.9971 163.899 58.3165C163.566 58.6772 163.314 59.1057 163.163 59.5729C162.973 60.1461 162.883 60.7474 162.896 61.3509V62.1156ZM160.995 56.0994H162.896V57.7237C163.326 57.1144 163.888 56.6098 164.541 56.2477C165.219 55.8972 165.974 55.7221 166.738 55.7382C167.474 55.7212 168.203 55.8731 168.87 56.1827C169.47 56.4659 169.994 56.889 170.397 57.4155C170.818 57.9793 171.127 58.6193 171.305 59.3003C171.51 60.0878 171.609 60.8992 171.602 61.7125C171.613 62.5752 171.493 63.4348 171.246 64.261C171.041 64.9669 170.696 65.6243 170.231 66.1935C169.797 66.7159 169.251 67.1337 168.632 67.4143C167.352 67.9741 165.899 67.9915 164.606 67.4619C163.929 67.1613 163.347 66.6843 162.919 66.0808V71.771H160.995V56.0994Z" fill="#30D266"/>
    <path d="M175.213 60.3554L173.199 61.7659V60.0944L175.213 58.6839V51.7551H177.137V57.4867L179.144 56.0522V57.7531L177.137 59.164V67.4976H175.213V60.3554Z" fill="#30D266"/>
    <path d="M187.982 61.7837L186.146 61.855C185.494 61.8688 184.844 61.9418 184.204 62.0741C183.771 62.1569 183.357 62.3177 182.981 62.5484C182.696 62.7234 182.472 62.9822 182.339 63.2891C182.208 63.6106 182.143 63.9554 182.15 64.3028C182.126 64.8123 182.313 65.3089 182.666 65.6777C183.148 66.0687 183.764 66.2562 184.383 66.1992C185.339 66.2562 186.283 65.956 187.031 65.3574C187.677 64.7744 188.027 63.9322 187.982 63.0637V61.7837ZM188.029 65.9324C187.586 66.4468 187.055 66.878 186.461 67.2071C185.729 67.5883 184.911 67.7741 184.086 67.7465C183.551 67.7514 183.02 67.6797 182.505 67.5331C182.055 67.4093 181.634 67.1933 181.271 66.8985C180.925 66.6125 180.649 66.2518 180.462 65.8438C180.263 65.3695 180.166 64.8582 180.178 64.3442C180.147 63.6761 180.322 63.0147 180.677 62.4473C181.009 61.948 181.468 61.5454 182.007 61.28C182.596 60.9914 183.224 60.7909 183.872 60.6872C184.581 60.5682 185.297 60.4948 186.016 60.468L187.982 60.4026V59.9759C188.056 59.2285 187.844 58.4807 187.388 57.8835C186.834 57.4069 186.109 57.1753 185.38 57.2435C184.68 57.1923 183.979 57.349 183.367 57.6938C182.941 57.9917 182.642 58.438 182.53 58.9444L180.783 58.7431C180.914 57.8064 181.448 56.9731 182.245 56.4614C183.219 55.9349 184.321 55.6869 185.428 55.7439C186.134 55.727 186.838 55.8276 187.512 56.0401C188.034 56.2129 188.508 56.505 188.896 56.8939C189.258 57.2787 189.519 57.7472 189.656 58.2572C189.817 58.854 189.895 59.4704 189.888 60.0886V67.4975H188.035L188.029 65.9324Z" fill="#30D266"/>
    <path d="M193.326 57.6169H191.545V56.0995H193.326V52.9819H195.245V56.0937H198.28V57.6107H195.251V64.303C195.227 64.7796 195.359 65.2517 195.625 65.6481C195.902 65.9963 196.333 66.1852 196.777 66.1518C197.061 66.154 197.345 66.1322 197.626 66.0868C197.857 66.0489 198.084 65.9892 198.303 65.909L198.63 67.3904C197.927 67.6327 197.187 67.7511 196.444 67.74C195.907 67.7614 195.372 67.6647 194.877 67.4559C194.492 67.2733 194.164 66.9909 193.927 66.6381C193.681 66.2573 193.519 65.8289 193.451 65.3817C193.367 64.8562 193.327 64.3248 193.333 63.793L193.326 57.6169Z" fill="#30D266"/>
    <path d="M200.406 56.0995H202.306V57.8423C202.781 57.1604 203.418 56.6068 204.159 56.23C204.827 55.9071 205.561 55.741 206.303 55.7441C207.374 55.659 208.429 56.0465 209.19 56.805C209.883 57.6864 210.228 58.7918 210.158 59.9111V67.4977H208.233V60.2843C208.305 59.4929 208.095 58.7014 207.639 58.0498C207.172 57.5777 206.519 57.339 205.858 57.3978C205.425 57.4009 204.996 57.4748 204.587 57.6169C204.164 57.7679 203.777 58.0062 203.452 58.3166C203.115 58.6061 202.831 58.953 202.615 59.3419C202.408 59.7806 202.311 60.2625 202.33 60.7466V67.4977H200.406V56.0995Z" fill="#30D266"/>
    <path d="M218.014 66.2645C218.563 66.2792 219.108 66.1656 219.606 65.9327C220.042 65.7207 220.418 65.4027 220.699 65.0081C221.002 64.5801 221.218 64.0968 221.334 63.5855C221.47 62.9887 221.536 62.3777 221.53 61.7657C221.534 61.168 221.468 60.5712 221.334 59.9877C221.217 59.4845 221 59.0092 220.699 58.5892C220.414 58.2009 220.039 57.8873 219.606 57.6762C218.595 57.2344 217.445 57.2344 216.434 57.6762C216.007 57.8913 215.637 58.204 215.354 58.5892C215.054 59.0097 214.84 59.4845 214.724 59.9877C214.463 61.1809 214.463 62.416 214.724 63.6091C214.833 64.112 215.034 64.5903 215.318 65.0201C215.595 65.4156 215.969 65.734 216.405 65.9443C216.914 66.1794 217.472 66.2894 218.032 66.2645H218.014ZM218.014 67.8527C217.22 67.8665 216.431 67.7236 215.692 67.4323C215.037 67.1695 214.449 66.7647 213.97 66.2467C213.478 65.6993 213.109 65.0526 212.889 64.3502C212.625 63.5392 212.497 62.6899 212.509 61.8374C212.499 60.9832 212.634 60.1334 212.907 59.3241C213.148 58.6137 213.532 57.9599 214.035 57.4032C214.531 56.8696 215.14 56.4528 215.817 56.1824C216.542 55.8849 217.319 55.7375 218.103 55.7499C218.89 55.7379 219.671 55.8813 220.402 56.1708C221.06 56.434 221.652 56.8389 222.136 57.356C222.626 57.906 222.996 58.5523 223.223 59.2529C223.73 60.8901 223.73 62.6418 223.223 64.279C222.989 64.9876 222.614 65.6414 222.118 66.1995C221.626 66.7375 221.017 67.1553 220.336 67.4207C219.599 67.7169 218.809 67.8639 218.014 67.8527Z" fill="#30D266"/>
    <path d="M231.335 51.3341H233.71L230.741 54.4634H228.841L231.335 51.3341ZM227.273 64.1665C227.331 64.8466 227.701 65.4616 228.276 65.8318C228.954 66.1823 229.712 66.3462 230.474 66.3061C231.198 66.3711 231.924 66.1983 232.541 65.8144C232.934 65.4928 233.154 65.0056 233.134 64.4983C233.136 64.2863 233.111 64.0752 233.057 63.8698C233.006 63.6712 232.904 63.4899 232.76 63.3425C232.589 63.171 232.388 63.033 232.166 62.9337C231.833 62.796 231.484 62.7007 231.127 62.6491L229.666 62.4237C229.09 62.3404 228.521 62.2077 227.968 62.0269C227.523 61.8888 227.105 61.6763 226.733 61.3984C226.398 61.1544 226.135 60.827 225.966 60.4502C225.787 60.0226 225.7 59.5621 225.711 59.0989C225.703 58.6068 225.822 58.1209 226.056 57.6884C226.288 57.2706 226.613 56.9117 227.006 56.6386C227.442 56.3349 227.928 56.1104 228.443 55.975C229.023 55.8178 229.623 55.7407 230.225 55.7439C230.921 55.7287 231.617 55.8107 232.291 55.9866C232.783 56.1193 233.244 56.3447 233.651 56.6511C233.992 56.9174 234.269 57.2555 234.465 57.6403C234.659 58.0171 234.809 58.4148 234.91 58.8259L233.165 59.1105C233.074 58.8263 232.954 58.5524 232.808 58.2923C232.679 58.0581 232.498 57.8554 232.279 57.7C232.034 57.5339 231.76 57.4132 231.472 57.3441C231.082 57.2582 230.683 57.2181 230.284 57.2261C229.838 57.2163 229.393 57.264 228.959 57.3682C228.655 57.4421 228.367 57.573 228.11 57.753C227.915 57.8906 227.759 58.0763 227.659 58.2923C227.569 58.4896 227.523 58.7043 227.522 58.9208C227.519 59.1337 227.549 59.3457 227.611 59.5488C227.672 59.7643 227.799 59.9545 227.974 60.0943C228.171 60.256 228.397 60.3807 228.639 60.4618C228.99 60.582 229.352 60.6693 229.72 60.7228L231.377 60.9896C232.426 61.0889 233.426 61.4862 234.257 62.1333C235.149 63.1577 235.379 64.5994 234.851 65.8496C234.651 66.2651 234.356 66.6285 233.99 66.9109C233.559 67.2338 233.072 67.473 232.553 67.6159C231.899 67.7941 231.223 67.8796 230.545 67.8707C229.894 67.8738 229.245 67.8057 228.609 67.6694C228.05 67.554 227.515 67.3411 227.029 67.041C226.575 66.7581 226.196 66.3698 225.925 65.9092C225.631 65.3792 225.464 64.7891 225.438 64.1843L227.273 64.1665Z" fill="#30D266"/>
    <path d="M247.322 63.651C247.197 64.8237 246.666 65.9157 245.82 66.7388C244.864 67.5387 243.637 67.9418 242.393 67.8652C241.603 67.8785 240.817 67.7356 240.082 67.4443C239.439 67.186 238.865 66.7798 238.408 66.2587C237.94 65.7046 237.594 65.0584 237.392 64.3622C237.152 63.5503 237.036 62.7072 237.048 61.8605C237.038 61.0165 237.164 60.1757 237.422 59.3717C237.647 58.6645 238.015 58.0107 238.503 57.4508C238.982 56.919 239.572 56.4977 240.231 56.2184C240.958 55.912 241.741 55.7606 242.53 55.7735C244.833 55.5383 246.895 57.2041 247.144 59.5018L245.22 59.8572C245.154 59.5107 245.054 59.1713 244.923 58.844C244.805 58.5442 244.629 58.2703 244.406 58.0378C244.179 57.8049 243.903 57.625 243.599 57.5105C243.234 57.376 242.847 57.3119 242.458 57.3208C241.923 57.3047 241.392 57.4232 240.914 57.6646C240.489 57.8868 240.127 58.2129 239.863 58.6124C239.578 59.0457 239.376 59.5281 239.269 60.0354C239.14 60.605 239.076 61.188 239.079 61.7719C239.076 62.3576 239.135 62.9415 239.257 63.5142C239.364 64.0215 239.566 64.5039 239.851 64.9372C240.109 65.3407 240.467 65.6717 240.891 65.897C241.374 66.1478 241.914 66.2707 242.458 66.2529C243.215 66.3126 243.964 66.0569 244.525 65.5474C244.991 65.0134 245.289 64.3533 245.38 63.651H247.322Z" fill="#30D266"/>
    <path d="M249.621 56.0994H251.545V67.4976H249.621V56.0994ZM249.556 51.7551H251.61V53.9776H249.556V51.7551Z" fill="#30D266"/>
</svg>
